<?xml version="1.0" encoding="UTF-8" standalone="no"?>
<svg
   xmlns:dc="http://purl.org/dc/elements/1.1/"
   xmlns:cc="http://creativecommons.org/ns#"
   xmlns:rdf="http://www.w3.org/1999/02/22-rdf-syntax-ns#"
   xmlns:svg="http://www.w3.org/2000/svg"
   xmlns="http://www.w3.org/2000/svg"
   width="14"
   height="14"
   viewBox="0 0 14 14"
   version="1.1"
   id="svg10">
  <metadata
     id="metadata16">
    <rdf:RDF>
      <cc:Work
         rdf:about="">
        <dc:format>image/svg+xml</dc:format>
        <dc:type
           rdf:resource="http://purl.org/dc/dcmitype/StillImage" />
        <dc:title></dc:title>
      </cc:Work>
    </rdf:RDF>
  </metadata>
  <defs
     id="defs14" />
  <path
     d="M 0,7 A 7,7 0 1 1 14,7 7,7 0 0 1 0,7 Z"
     id="path2"
     style="fill-rule:evenodd;fill:#1f75cb;fill-opacity:1" />
  <path
     d="M 13,7 A 6,6 0 1 0 1,7 6,6 0 0 0 13,7 Z"
     fill="#ffffff"
     id="path4"
     style="fill-rule:evenodd" />
  <path
     d="m 7,3 c 2.2,0 4,1.8 4,4 0,2.2 -1.8,4 -4,4 C 5.7,11 4.5,10.3 3.7,9.3 L 7,7 V 3"
     id="path6"
     style="fill-rule:evenodd;fill:#1f75cb;fill-opacity:1" />
</svg>
